{
  "name": "demo",
  "version": "1.0.0",
  "description": "",
  "main": "app.js",
  "scripts": {
    "test": "echo \"Error: no test specified\" && exit 1",
    "start": "nodemon app.js",
    "start-server": "node app.js"
  },
  "author": "",
  "license": "ISC",
  "dependencies": {
    "body-parser": "^1.18.3",
    "bootstrap": "^4.3.1",
    "ejs": "^2.6.1",
    "express": "^4.16.4",
    "express-handlebars": "^3.0.2",
    "helmet": "^3.16.0",
    "md5": "^2.2.1",
    "mongodb": "^3.2.3",
    "mongoose": "^5.5.0",
    "morgan": "^1.9.1",
    "mysql2": "^1.6.5",
    "pug": "^2.0.3",
    "sequelize": "^5.2.12"
  }
}
